*****************************************************************************************************************************
Provided input file is = valgrind.48651.1.out
*****************************************************************************************************************************

=============================================================================================================================
                                                  <<== Leak Report ==>>
=============================================================================================================================


--------------------------------------------------
            ===>>> Leak # 1 <<<===
--------------------------------------------------
873,744 (72,144 direct, 801,600 indirect) bytes in 1,002 blocks are definitely lost in loss record 37,659 of 37,698
  at 0x4033F11: operator new(unsigned long) (vg_replace_malloc.c:434)
  by 0x473E9CCB: make_unique<Trk::PlaneSurface, InDetDD::SolidStateDetectorElementBase&> (unique_ptr.h:962)
  by 0x473E9CCB: InDetDD::SolidStateDetectorElementBase::commonConstructor() (SolidStateDetectorElementBase.cxx:306)
  by 0x473EADD1: InDetDD::SolidStateDetectorElementBase::SolidStateDetectorElementBase(Identifier const&, InDetDD::DetectorDesign const*, GeoVFullPhysVol const*, InDetDD::SiCommonItems const*, GeoAlignmentStore const*) (SolidStateDetectorElementBase.cxx:36)
  by 0x473BBE7C: InDetDD::HGTD_DetectorElement::HGTD_DetectorElement(Identifier const&, InDetDD::HGTD_ModuleDesign const*, GeoVFullPhysVol const*, InDetDD::SiCommonItems const*, GeoAlignmentStore const*) (HGTD_DetectorElement.cxx:22)
  by 0x6AEA0EE8: HGTD_DetectorElementCondAlg::execute(EventContext const&) const (HGTD_DetectorElementCondAlg.cxx:69)
  by 0x3871AE26: Gaudi::Algorithm::sysExecute(EventContext const&) (Algorithm.cpp:352)
--------------------------------------------------


--------------------------------------------------
            ===>>> Leak # 2 <<<===
--------------------------------------------------
6,097,024 (5,593,600 direct, 503,424 indirect) bytes in 6,992 blocks are definitely lost in loss record 37,693 of 37,698
  at 0x4033F11: operator new(unsigned long) (vg_replace_malloc.c:434)
  by 0x6AEA0EC2: HGTD_DetectorElementCondAlg::execute(EventContext const&) const (HGTD_DetectorElementCondAlg.cxx:69)
  by 0x3871AE26: Gaudi::Algorithm::sysExecute(EventContext const&) (Algorithm.cpp:352)
--------------------------------------------------

*****************************************************************************************************************************
Total number of reported leaks  = 2
*****************************************************************************************************************************

=============================================================================================================================
                                                  <<== Uninitialisation Report ==>>
=============================================================================================================================
*****************************************************************************************************************************
Total number of reported Uninitialisations  = 0
*****************************************************************************************************************************

=============================================================================================================================
                                                  <<== Invalid Read/Write Report ==>>
=============================================================================================================================
*****************************************************************************************************************************
Total number of reported Invalid Read/Writes  = 0
*****************************************************************************************************************************
